E:\eclipse-workspace\mcart-trail1\src\test\java\com\Items.java
E:\eclipse-workspace\mcart-trail1\src\test\java\com\Main.java
E:\eclipse-workspace\mcart-trail1\src\test\java\com\Item.java
E:\eclipse-workspace\mcart-trail1\src\test\java\com\Cart.java
E:\eclipse-workspace\mcart-trail1\src\test\java\com\Database.java
E:\eclipse-workspace\mcart-trail1\src\test\java\cart_example\mcart_trail1\AppTest.java
